// Jest Snapshot v1, https://goo.gl/fbAQLP

exports[`Navbar.vue renders to a nice snapshot 1`] = `
<div class="nav-root">
    <nav class="deep-purple">
        <div class="nav-wrapper">
            <button class="toggle-button hide-on-med-and-up">
                <i class="material-icons">menu</i>
            </button>
            <router-link to="[object Object]" class="brand-logo">
                <img src="../assets/logo.png">
            </router-link>
            <div class="nav-title">GitLab Training Library</div>
            <ul class="right hide-on-med-and-down">
                <li>
                    <a href="#">Filter</a>
                </li>
                <li>
                    <a href="#">Filter 2</a>
                </li>
                <li>
                    <a href="#">Filter 3</a>
                </li>
            </ul>
        </div>
    </nav>
</div>
`;
